Loading MiXCR Data • immunarch
…
== Step 2/3: checking metadata files and merging... ==

Processing "<initial>" ...
  -- Metadata file not found; creating a dummy metadata...

== Step 3/3: splitting data by barcodes and chains... ==

Done!

Congrats! Now your data is ready for exploration. Follow the steps here to learn more about how to explore your dataset.

r$> immdata_mixcr                                                                                                                                
$data
$data$analysis.clonotypes.IGH
# A tibble: 33,812 x 15
   Clones Proportion CDR3.nt            CDR3.aa    V.name    D.name    J.name V.end D.start D.end J.start VJ.ins VD.ins DJ.ins Sequence          
    <dbl>      <dbl> <chr>              <chr>      <chr>     <chr>     <chr>  <int>   <int> <int>   <int>  <int>  <int>  <int> <chr>             
 1    230    0.00284 TGTGTGAGACATAAACC… CVRHKPMVQ… IGHV4-39  IGHD3-10… IGHJ6     12      NA     5      36      9      3      6 TGTGTGAGACATAAACC…
 2    201    0.00248 TGTGCGATTTGGGATGT… CAIWDVGLR… IGHV4-34  IGHD2-21  IGHJ4…     7      NA     5      29     10      7      3 TGTGCGATTTGGGATGT…
 3    179    0.00221 TGTGCGAGAGATCATGC… CARDHAGFG… IGHV1-69… IGHD3-10  IGHJ6     13      NA     4      40     18      5     13 TGTGCGAGAGATCATGC…
 4     99    0.00122 TGTGCGAGATGGGGATA… CARWGYCIN… IGHV4-39  IGHD2-8   IGHJ6      9      NA     6      64     23      2     21 TGTGCGAGATGGGGATA…
 5     97    0.00120 TGTGCGAGAGGCCCCAC… CARGPTSSE… IGHV4-34  IGHD3-22… IGHJ6     13      NA     6      52     26     24      2 TGTGCGAGAGGCCCCAC…
 6     97    0.00120 TGTGCGCACCACTATAC… CAHHYTSDY… IGHV2-5   IGHD1-26  IGHJ5      9      NA     2      39     19     NA     20 TGTGCGCACCACTATAC…
 7     92    0.00114 TGTGCGAGAGGCCCTCC… CARGPPSMG… IGHV4-34  IGHD5-24… IGHJ4     13      NA     3      38     11      6      5 TGTGCGAGAGGCCCTCC…
 8     84    0.00104 TGTGCGAGGTGGCTTGG… CARWLGEDI… IGHV4-39  IGHD3-16… IGHJ4…     8      NA     6      32     13      4      9 TGTGCGAGGTGGCTTGG…
 9     83    0.00103 TGTGCGAGAGGCCGCAG… CARGRSGDP… IGHV4-34  IGHD2-2,… IGHJ5     13      NA     4      50     18     13      5 TGTGCGAGAGGCCGCAG…
10     81    0.00100 TGTGTGAGTCACCTCCT… CVSHLLDTS… IGHV1-2   IGHD2-21… IGHJ4…     8      NA     3      40     20     14      6 TGTGTGAGTCACCTCCT…
# … with 33,802 more rows
…
== Step 2/3: checking metadata files and merging files... ==

Processing "/path/to/your/mixcr/data/" ...
  -- Everything is OK!

== Step 3/3: processing paired chain data... ==

Done!

Now let’s take a look at the data! Your output should look something like below.

r$> immdata_mixcr                                                                                                                                
$data
$data$analysis.clonotypes.IGH_1
# A tibble: 32,744 x 15
   Clones Proportion CDR3.nt                 CDR3.aa     V.name    D.name      J.name  V.end D.start D.end J.start VJ.ins VD.ins DJ.ins Sequence              
    <dbl>      <dbl> <chr>                   <chr>       <chr>     <chr>       <chr>   <int>   <int> <int>   <int>  <int>  <int>  <int> <chr>                 
 1    230    0.00284 TGTGTGAGACATAAACCTATGG… CVRHKPMVQG… IGHV4-39  IGHD3-10, … IGHJ6      12      NA     5      36      9      3      6 TGTGTGAGACATAAACCTATG…
 2    201    0.00248 TGTGCGATTTGGGATGTGGGAC… CAIWDVGLRH… IGHV4-34  IGHD2-21    IGHJ4,…     7      NA     5      29     10      7      3 TGTGCGATTTGGGATGTGGGA…
 3    179    0.00221 TGTGCGAGAGATCATGCGGGGT… CARDHAGFGK… IGHV1-69… IGHD3-10    IGHJ6      13      NA     4      40     18      5     13 TGTGCGAGAGATCATGCGGGG…
 4     99    0.00122 TGTGCGAGATGGGGATATTGTA… CARWGYCING… IGHV4-39  IGHD2-8     IGHJ6       9      NA     6      64     23      2     21 TGTGCGAGATGGGGATATTGT…
 5     97    0.00120 TGTGCGAGAGGCCCCACGAGCA… CARGPTSSEW… IGHV4-34  IGHD3-22, … IGHJ6      13      NA     6      52     26     24      2 TGTGCGAGAGGCCCCACGAGC…
 6     97    0.00120 TGTGCGCACCACTATACCAGCG… CAHHYTSDYY… IGHV2-5   IGHD1-26    IGHJ5       9      NA     2      39     19     NA     20 TGTGCGCACCACTATACCAGC…
 7     92    0.00114 TGTGCGAGAGGCCCTCCGTCGA… CARGPPSMGT… IGHV4-34  IGHD5-24, … IGHJ4      13      NA     3      38     11      6      5 TGTGCGAGAGGCCCTCCGTCG…
 8     84    0.00104 TGTGCGAGGTGGCTTGGGGAAG… CARWLGEDIR… IGHV4-39  IGHD3-16, … IGHJ4,…     8      NA     6      32     13      4      9 TGTGCGAGGTGGCTTGGGGAA…
 9     83    0.00103 TGTGCGAGAGGCCGCAGCGGCG… CARGRSGDPY… IGHV4-34  IGHD2-2, I… IGHJ5      13      NA     4      50     18     13      5 TGTGCGAGAGGCCGCAGCGGC…
10     81    0.00100 TGTGTGAGTCACCTCCTCGACA… CVSHLLDTSD… IGHV1-2   IGHD2-21, … IGHJ4,…     8      NA     3      40     20     14      6 TGTGTGAGTCACCTCCTCGAC…
# … with 32,734 more rows

$data$analysis.clonotypes.IGH_2
# A tibble: 32,744 x 15
   Clones Proportion CDR3.nt                 CDR3.aa     V.name    D.name      J.name  V.end D.start D.end J.start VJ.ins VD.ins DJ.ins Sequence              
    <dbl>      <dbl> <chr>                   <chr>       <chr>     <chr>       <chr>   <int>   <int> <int>   <int>  <int>  <int>  <int> <chr>                 
 1    230    0.00284 TGTGTGAGACATAAACCTATGG… CVRHKPMVQG… IGHV4-39  IGHD3-10, … IGHJ6      12      NA     5      36      9      3      6 TGTGTGAGACATAAACCTATG…
 2    201    0.00248 TGTGCGATTTGGGATGTGGGAC… CAIWDVGLRH… IGHV4-34  IGHD2-21    IGHJ4,…     7      NA     5      29     10      7      3 TGTGCGATTTGGGATGTGGGA…
 3    179    0.00221 TGTGCGAGAGATCATGCGGGGT… CARDHAGFGK… IGHV1-69… IGHD3-10    IGHJ6      13      NA     4      40     18      5     13 TGTGCGAGAGATCATGCGGGG…
 4     99    0.00122 TGTGCGAGATGGGGATATTGTA… CARWGYCING… IGHV4-39  IGHD2-8     IGHJ6       9      NA     6      64     23      2     21 TGTGCGAGATGGGGATATTGT…
 5     97    0.00120 TGTGCGAGAGGCCCCACGAGCA… CARGPTSSEW… IGHV4-34  IGHD3-22, … IGHJ6      13      NA     6      52     26     24      2 TGTGCGAGAGGCCCCACGAGC…
 6     97    0.00120 TGTGCGCACCACTATACCAGCG… CAHHYTSDYY… IGHV2-5   IGHD1-26    IGHJ5       9      NA     2      39     19     NA     20 TGTGCGCACCACTATACCAGC…
 7     92    0.00114 TGTGCGAGAGGCCCTCCGTCGA… CARGPPSMGT… IGHV4-34  IGHD5-24, … IGHJ4      13      NA     3      38     11      6      5 TGTGCGAGAGGCCCTCCGTCG…
 8     84    0.00104 TGTGCGAGGTGGCTTGGGGAAG… CARWLGEDIR… IGHV4-39  IGHD3-16, … IGHJ4,…     8      NA     6      32     13      4      9 TGTGCGAGGTGGCTTGGGGAA…
 9     83    0.00103 TGTGCGAGAGGCCGCAGCGGCG… CARGRSGDPY… IGHV4-34  IGHD2-2, I… IGHJ5      13      NA     4      50     18     13      5 TGTGCGAGAGGCCGCAGCGGC…
10     81    0.00100 TGTGTGAGTCACCTCCTCGACA… CVSHLLDTSD… IGHV1-2   IGHD2-21, … IGHJ4,…     8      NA     3      40     20     14      6 TGTGTGAGTCACCTCCTCGAC…
# … with 32,734 more rows

$data$analysis.clonotypes.IGH_3
# A tibble: 32,744 x 15
   Clones Proportion CDR3.nt                 CDR3.aa     V.name    D.name      J.name  V.end D.start D.end J.start VJ.ins VD.ins DJ.ins Sequence              
    <dbl>      <dbl> <chr>                   <chr>       <chr>     <chr>       <chr>   <int>   <int> <int>   <int>  <int>  <int>  <int> <chr>                 
 1    230    0.00284 TGTGTGAGACATAAACCTATGG… CVRHKPMVQG… IGHV4-39  IGHD3-10, … IGHJ6      12      NA     5      36      9      3      6 TGTGTGAGACATAAACCTATG…
 2    201    0.00248 TGTGCGATTTGGGATGTGGGAC… CAIWDVGLRH… IGHV4-34  IGHD2-21    IGHJ4,…     7      NA     5      29     10      7      3 TGTGCGATTTGGGATGTGGGA…
 3    179    0.00221 TGTGCGAGAGATCATGCGGGGT… CARDHAGFGK… IGHV1-69… IGHD3-10    IGHJ6      13      NA     4      40     18      5     13 TGTGCGAGAGATCATGCGGGG…
 4     99    0.00122 TGTGCGAGATGGGGATATTGTA… CARWGYCING… IGHV4-39  IGHD2-8     IGHJ6       9      NA     6      64     23      2     21 TGTGCGAGATGGGGATATTGT…
 5     97    0.00120 TGTGCGAGAGGCCCCACGAGCA… CARGPTSSEW… IGHV4-34  IGHD3-22, … IGHJ6      13      NA     6      52     26     24      2 TGTGCGAGAGGCCCCACGAGC…
 6     97    0.00120 TGTGCGCACCACTATACCAGCG… CAHHYTSDYY… IGHV2-5   IGHD1-26    IGHJ5       9      NA     2      39     19     NA     20 TGTGCGCACCACTATACCAGC…
 7     92    0.00114 TGTGCGAGAGGCCCTCCGTCGA… CARGPPSMGT… IGHV4-34  IGHD5-24, … IGHJ4      13      NA     3      38     11      6      5 TGTGCGAGAGGCCCTCCGTCG…
 8     84    0.00104 TGTGCGAGGTGGCTTGGGGAAG… CARWLGEDIR… IGHV4-39  IGHD3-16, … IGHJ4,…     8      NA     6      32     13      4      9 TGTGCGAGGTGGCTTGGGGAA…
 9     83    0.00103 TGTGCGAGAGGCCGCAGCGGCG… CARGRSGDPY… IGHV4-34  IGHD2-2, I… IGHJ5      13      NA     4      50     18     13      5 TGTGCGAGAGGCCGCAGCGGC…
10     81    0.00100 TGTGTGAGTCACCTCCTCGACA… CVSHLLDTSD… IGHV1-2   IGHD2-21, … IGHJ4,…     8      NA     3      40     20     14      6 TGTGTGAGTCACCTCCTCGAC…
# … with 32,734 more rows
…
