Annotate clonotypes using immune receptor databases • immunarch
…
For demonstration purposes, we will process each of the supported databases below.

VDJDB

Download the VDJDB database following the instructions above. In the examples below, we use URLs to snippets of databases as file paths. In your own code you need to provide paths to your local database files, e.g., “/Users/yourname/Downloads/vdjdb-db-master/vdjdb.slim.txt”. Do not use the links below since they are only for testing purposes and not the actual databases!

Note that VDJDB data obtained from the web interface differs from VDJDB obtained from raw files. Check the next section for working with VDJDB search tables.

The most basic way to load VDJDB to R:

vdjdb = dbLoad("https://gitlab.com/immunomind/immunarch/raw/dev-0.5.0/private/vdjdb.slim.txt.gz", "vdjdb")
vdjdb

## # A tibble: 61,049 × 19
##    gene  cdr3    species antigen.epitope antigen.gene antigen.species complex.id
##    <chr> <chr>   <chr>   <chr>           <chr>        <chr>                <dbl>
##  1 TRB   CASSTS… Macaca… STPESANL        Tat          SIV                0      
##  2 TRB   CASSQD… HomoSa… RLRAEAQVK       EBNA3A       EBV                1.93e 4
##  3 TRB   CASSMS… Macaca… TTPESANL        Tat          SIV                0      
##  4 TRA   CASNTG… HomoSa… GILGFVFTL       M            InfluenzaA         0      
##  5 TRB   CASSLG… MusMus… HGIRNASFI       M45          MCMV               2.24e24
##  6 TRB   CSASIL… HomoSa… KLGGALQAK       IE1          CMV                8.58e 3
##  7 TRA   CAVLLE… HomoSa… GILGFVFTL       M            InfluenzaA         0      
##  8 TRB   CASSYF… HomoSa… KLGGALQAK       IE1          CMV                3.44e 3
##  9 TRB   CASTGD… MusMus… SSYRRPVGI       PB1          InfluenzaA         2.28e 4
## 10 TRB   CASSAF… HomoSa… NLVPMVATV       pp65         CMV                0      
## # … with 61,039 more rows, and 12 more variables: v.segm <chr>, j.segm <chr>,
## #   v.end <dbl>, j.start <dbl>, mhc.a <chr>, mhc.b <chr>, mhc.class <chr>,
## #   reference.id <chr>, vdjdb.score <dbl>, Species <chr>, Chain <chr>,
## #   Pathology <chr>

To load VDJDB and filter out information you need to provide .species, .chain and .pathology arguments:

vdjdb = dbLoad("https://gitlab.com/immunomind/immunarch/raw/dev-0.5.0/private/vdjdb.slim.txt.gz", "vdjdb", .species = "HomoSapiens", .chain = "TRB", .pathology = "CMV")
vdjdb

## # A tibble: 18,039 × 19
##    gene  cdr3    species antigen.epitope antigen.gene antigen.species complex.id
##    <chr> <chr>   <chr>   <chr>           <chr>        <chr>                <dbl>
##  1 TRB   CSASIL… HomoSa… KLGGALQAK       IE1          CMV                   8584
##  2 TRB   CASSYF… HomoSa… KLGGALQAK       IE1          CMV                   3445
##  3 TRB   CASSAF… HomoSa… NLVPMVATV       pp65         CMV                      0
##  4 TRB   CASSLW… HomoSa… KLGGALQAK       IE1          CMV                  19396
##  5 TRB   CASSLT… HomoSa… NLVPMVATV       pp65         CMV                      0
##  6 TRB   CASTAK… HomoSa… KLGGALQAK       IE1          CMV                  10972
##  7 TRB   CASSGA… HomoSa… KLGGALQAK       IE1          CMV                   6231
##  8 TRB   CASSLI… HomoSa… KLGGALQAK       IE1          CMV                  12587
##  9 TRB   CATSSS… HomoSa… KLGGALQAK       IE1          CMV                  13267
## 10 TRB   CASSLG… HomoSa… NLVPMVATV       pp65         CMV                      0
## # … with 18,029 more rows, and 12 more variables: v.segm <chr>, j.segm <chr>,
## #   v.end <dbl>, j.start <dbl>, mhc.a <chr>, mhc.b <chr>, mhc.class <chr>,
## #   reference.id <chr>, vdjdb.score <dbl>, Species <chr>, Chain <chr>,
## #   Pathology <chr>

VDJDB search tables

vdjdb_st = dbLoad("https://gitlab.com/immunomind/immunarch/raw/dev-0.5.0/private/SearchTable-2019-10-17%2012_36_11.989.tsv.gz", "vdjdb-search", .species = "HomoSapiens", .chain = "TRB", .pathology = "CMV")
vdjdb_st

## # A tibble: 4,999 × 19
##    complex.id Gene  CDR3     V       J       Species `MHC A` `MHC B` `MHC class`
##         <dbl> <chr> <chr>    <chr>   <chr>   <chr>   <chr>   <chr>   <chr>      
##  1          0 TRB   CASSVDG… TRBV9*… TRBJ1-… HomoSa… HLA-A*… B2M     MHCI       
##  2          0 TRB   CAWSWGD… TRBV30… TRBJ1-… HomoSa… HLA-A*… B2M     MHCI       
##  3          0 TRB   CASSLVG… TRBV11… TRBJ2-… HomoSa… HLA-A*… B2M     MHCI       
##  4          0 TRB   CASSLLM… TRBV28… TRBJ1-… HomoSa… HLA-B*… B2M     MHCI       
##  5          0 TRB   CASSYRA… TRBV7-… TRBJ2-… HomoSa… HLA-B*… B2M     MHCI       
##  6          0 TRB   CASSQAV… TRBV3-… TRBJ2-… HomoSa… HLA-B*… B2M     MHCI       
##  7          0 TRB   CASVTGS… TRBV2*… TRBJ2-… HomoSa… HLA-B*… B2M     MHCI       
##  8          0 TRB   CASSDGT… TRBV2*… TRBJ2-… HomoSa… HLA-B*… B2M     MHCI       
##  9          0 TRB   CASSLAR… TRBV4-… TRBJ1-… HomoSa… HLA-B*… B2M     MHCI       
## 10          0 TRB   CASGGAD… TRBV19… TRBJ1-… HomoSa… HLA-B*… B2M     MHCI       
## # … with 4,989 more rows, and 10 more variables: Epitope <chr>,
## #   Epitope gene <chr>, Epitope species <chr>, Reference <chr>, Method <chr>,
## #   Meta <chr>, CDR3fix <chr>, Score <dbl>, Chain <chr>, Pathology <chr>

McPAS-TCR

mcpas = dbLoad("https://gitlab.com/immunomind/immunarch/raw/dev-0.5.0/private/McPAS-TCR.csv.gz", "mcpas", .species = "Human", .chain = "TRB", .pathology = "Cytomegalovirus (CMV)")
mcpas

## # A tibble: 2,723 × 29
##    CDR3.alpha.aa CDR3.beta.aa      Species Category  Pathology  Pathology.Mesh.…
##    <chr>         <chr>             <chr>   <chr>     <chr>      <chr>           
##  1 <NA>          CASLAPGTTNEKLF    Human   Pathogens Cytomegal… D003586         
##  2 <NA>          CASLQAGANEQF      Human   Pathogens Cytomegal… D003586         
##  3 <NA>          CASLSGGGEQF       Human   Pathogens Cytomegal… D003586         
##  4 <NA>          CASLVASGQETQYF    Human   Pathogens Cytomegal… D003586         
##  5 <NA>          CASSHRDSGNTIYF    Human   Pathogens Cytomegal… D003586         
##  6 <NA>          CASSSANYGYTF      Human   Pathogens Cytomegal… D003586         
##  7 <NA>          CATSDPLTASYEQF    Human   Pathogens Cytomegal… D003586         
##  8 CARNTGNQF     CACSLRSQGTDTQYF   Human   Pathogens Cytomegal… D003586         
##  9 CAGNTGNQFYFG  CASSAWDRSSGANVLTF Human   Pathogens Cytomegal… D003586         
## 10 CAYPYNNNDMRF  CASSELGGAGTGELF   Human   Pathogens Cytomegal… D003586         
## # … with 2,713 more rows, and 23 more variables:
## #   Additional.study.details <chr>, Antigen.identification.method <dbl>,
## #   NGS <chr>, Antigen.protein <chr>, Protein.ID <chr>, Epitope.peptide <chr>,
## #   Epitope.ID <chr>, MHC <chr>, Tissue <chr>, T.Cell.Type <chr>,
## #   T.cell.characteristics <chr>, CDR3.alpha.nt <chr>, TRAV <chr>, TRAJ <chr>,
## #   TRBV <chr>, TRBD <chr>, TRBJ <chr>, Reconstructed.J.annotation <chr>,
## #   CDR3.beta.nt <chr>, Mouse.strain <chr>, PubMed.ID <dbl>, Remarks <chr>, …
…
# Filter out all non NLVPMVATV epitopes
vdjdb = vdjdb %>% filter(antigen.epitope == "NLVPMVATV")
vdjdb

## # A tibble: 4,496 × 19
##    gene  cdr3    species antigen.epitope antigen.gene antigen.species complex.id
##    <chr> <chr>   <chr>   <chr>           <chr>        <chr>                <dbl>
##  1 TRB   CASSAF… HomoSa… NLVPMVATV       pp65         CMV                      0
##  2 TRB   CASSLT… HomoSa… NLVPMVATV       pp65         CMV                      0
##  3 TRB   CASSLG… HomoSa… NLVPMVATV       pp65         CMV                      0
##  4 TRB   CASSLD… HomoSa… NLVPMVATV       pp65         CMV                      0
##  5 TRB   CSADGL… HomoSa… NLVPMVATV       pp65         CMV                      0
##  6 TRB   CASSFR… HomoSa… NLVPMVATV       pp65         CMV                      0
##  7 TRB   CASSFG… HomoSa… NLVPMVATV       pp65         CMV                      0
##  8 TRB   CASSYG… HomoSa… NLVPMVATV       pp65         CMV                      0
##  9 TRB   CSVEAY… HomoSa… NLVPMVATV       pp65         CMV                      0
## 10 TRB   CASSSG… HomoSa… NLVPMVATV       pp65         CMV                      0
## # … with 4,486 more rows, and 12 more variables: v.segm <chr>, j.segm <chr>,
## #   v.end <dbl>, j.start <dbl>, mhc.a <chr>, mhc.b <chr>, mhc.class <chr>,
## #   reference.id <chr>, vdjdb.score <dbl>, Species <chr>, Chain <chr>,
## #   Pathology <chr>
…
