Gene usage analysis • immunarch
…
To compute the distributions of genes, immunarch includes the geneUsage function. It receives a repertoire or a list of repertoires as input and genes and species for which you want to get the statistics. E.g., if you plan to use TRBV genes of Homo Sapiens, you need to use the hs.trbv string in the function, where hs comes from the alias column and trbv is the gene name. Of if you plan to use IGHJ genes of Mus Musculus, you need to use musmus.ighj:

# Next four function calls are equal. "hs" is from the "alias" column.
imm_gu <- geneUsage(immdata$data, "hs.trbv")
# imm_gu = geneUsage(immdata$data, "HomoSapiens.trbv")
# imm_gu = geneUsage(immdata$data, "hs.TRBV")
# imm_gu = geneUsage(immdata$data, "HomoSapiens.TRBV")

imm_gu

## # A tibble: 48 × 13
##    Names `A2-i129` `A2-i131` `A2-i133` `A2-i132` `A4-i191` `A4-i192`   MS1   MS2
##    <chr>     <int>     <int>     <int>     <int>     <int>     <int> <int> <int>
##  1 TRBV…        24        28        NA        16        29         6    19     4
##  2 TRBV…        42        60         8        29        28        16    25    35
##  3 TRBV…       230       282       135       108       376       215   195   142
##  4 TRBV…        21        14        26        17        17        16    14    10
##  5 TRBV…       183       172       125       161        95       113    94   105
##  6 TRBV…         8        11         5        24         2         7     4    13
##  7 TRBV…       603       459       313       433       333       557   406   606
##  8 TRBV…        37        54         8        38        18        17     7    17
##  9 TRBV…        44        53        45        78        29        43    39    28
## 10 TRBV…        65        91        48        73        40        30    23    94
## # … with 38 more rows, and 4 more variables: MS3 <int>, MS4 <int>, MS5 <int>,
## #   MS6 <int>
…
