Kmer and sequence motif analysis and visualisation • immunarch
…
ImmunoMind – improving design of T-cell therapies using multi-omics and AI. Research and biopharma partnerships, more details: immunomind.io

            support@immunomind.io

      Source: vignettes/web_only/v9_kmers.Rmd
      v9_kmers.Rmd

Kmer statistics computation

Counting k-mer occurrences in immunarch is rather straightforward. All you need to do is to run the getKmers() function on your data:

kmers <- getKmers(immdata$data[[1]], 3)
kmers

## # A tibble: 4,405 × 2
##    Kmer  Count
##    <chr> <int>
##  1 AAA       6
##  2 AAD       5
##  3 AAE       9
##  4 AAF       2
##  5 AAG      37
##  6 AAI       2
##  7 AAK       5
##  8 AAL       4
##  9 AAM       1
## 10 AAN      13
## # … with 4,395 more rows

It is also possible to compute occurrences of k-mers in a batch of immune repertoires. In order to do that, you just need to provide a list of immune repertoires to the function. NA means that there is no such kmer found in a sample, specified by the column name.

kmers <- getKmers(immdata$data, 5)
kmers

## # A tibble: 172,926 × 13
##    Kmer  `A2-i129` `A2-i131` `A2-i133` `A2-i132` `A4-i191` `A4-i192`   MS1   MS2
##    <chr>     <int>     <int>     <int>     <int>     <int>     <int> <int> <int>
##  1 AAAAG        NA        NA        NA        NA        NA        NA    NA     1
##  2 AAAAL        NA        NA        NA        NA        NA        NA    NA    NA
##  3 AAAAW        NA        NA        NA        NA        NA         1    NA    NA
##  4 AAADE        NA        NA        NA        NA        NA        NA    NA    NA
##  5 AAADN        NA         1        NA        NA        NA        NA    NA    NA
##  6 AAADT        NA        NA        NA        NA        NA        NA    NA    NA
##  7 AAAEA        NA        NA        NA        NA        NA        NA    NA    NA
##  8 AAAEN        NA        NA        NA         1        NA        NA    NA    NA
##  9 AAAET        NA        NA        NA        NA        NA        NA    NA    NA
## 10 AAAFE        NA        NA        NA         1        NA        NA    NA    NA
## # … with 172,916 more rows, and 4 more variables: MS3 <int>, MS4 <int>,
## #   MS5 <int>, MS6 <int>

Note that by default getKmers() filter out all non-coding sequences before counting the k-mer statistics. You can use both coding and non-coding sequences by setting the .coding argument to FALSE:

kmers <- getKmers(immdata$data[[1]], 3, .coding = F)
kmers

## # A tibble: 4,645 × 2
##    Kmer  Count
##    <chr> <int>
##  1 **G       1
##  2 *~G       4
##  3 *~L       1
##  4 *AA       1
##  5 *D~       1
##  6 *EE       1
##  7 *G~       1
##  8 *GG       1
##  9 *GP       1
## 10 *HL       1
## # … with 4,635 more rows
…
