…
Processing "<initial>" ...
  -- Metadata file not found; creating a dummy metadata...

== Step 3/3: splitting data by barcodes and chains... ==

Done!
```

Congrats! Now your data is ready for exploration. Follow the steps here to learn more about how to explore your dataset.

```{r, eval=F}
> immdata_10x
$data$vdj_v1_mm_c57bl6_splenocytes_t_consensus_annotations_TRA
# A tibble: 710 x 17
   Clones Proportion CDR3.nt      CDR3.aa  V.name  D.name J.name V.end D.start D.end J.start VJ.ins VD.ins DJ.ins chain ClonotypeID  ConsensusID 
    <dbl>      <dbl> <chr>        <chr>    <chr>   <chr>  <chr>  <int>   <int> <int>   <int>  <int>  <int>  <int> <chr> <chr>        <chr>       
 1     55    0.00414 TGTGCTATGGC… CAMATGG… TRAV13… None   TRAJ56    NA      NA    NA      NA     NA     NA     NA TRA   clonotype306 clonotype30…
 2     55    0.00414 TGTGCAGCTAG… CAASGNT… TRAV7-4 None   TRAJ27    NA      NA    NA      NA     NA     NA     NA TRA   clonotype338 clonotype33…
 3     53    0.00399 TGTGCAGCAAG… CAARDSG… TRAV14… None   TRAJ11    NA      NA    NA      NA     NA     NA     NA TRA   clonotype617 clonotype61…
 4     45    0.00339 TGCGCAGTCAG… CAVSNNT… TRAV3-3 None   TRAJ27    NA      NA    NA      NA     NA     NA     NA TRA   clonotype435 clonotype43…
 5     43    0.00324 TGTGCAGTCAG… CAVSNMG… TRAV7D… None   TRAJ9     NA      NA    NA      NA     NA     NA     NA TRA   clonotype401 clonotype40…
 6     42    0.00316 TGTGCAGCAAG… CAASPNY… TRAV14… None   TRAJ21    NA      NA    NA      NA     NA     NA     NA TRA   clonotype5   clonotype5_…
 7     37    0.00279 TGTGCAGTGAG… CAVSSGG… TRAV7D… None   TRAJ6     NA      NA    NA      NA     NA     NA     NA TRA   clonotype453 clonotype45…
 8     35    0.00264 TGTGCAGCAAG… CAASATS… TRAV14… None   TRAJ22    NA      NA    NA      NA     NA     NA     NA TRA   clonotype809 clonotype80…
 9     32    0.00241 TGTGCAGCAAG… CAASPNY… TRAV14… None   TRAJ21    NA      NA    NA      NA     NA     NA     NA TRA   clonotype150 clonotype15…
10     32    0.00241 TGTGCTCTGGG… CALGDEA… TRAV6-… None   TRAJ30    NA      NA    NA      NA     NA     NA     NA TRA   clonotype393 clonotype39…
# … with 700 more rows
…
