…
# snapshot_repDiversity_raref

    Code
      repDiversity(test_data, .method = "raref", .verbose = FALSE) %>% group_by(Sample) %>% slice_tail(
        n = 2) %>% ungroup
    Output
      # A tibble: 24 × 6
          Size Q0.025  Mean Q0.975 Sample  Type         
         <dbl>  <dbl> <dbl>  <dbl> <chr>   <chr>        
       1  20.0   7.07  7.07   7.07 A2-i129 extrapolation
       2  20     7.07  7.07   7.07 A2-i129 extrapolation
       3  20.0   7.16  7.16   7.16 A2-i131 extrapolation
       4  20     7.16  7.16   7.16 A2-i131 extrapolation
       5  20.0   5.28  5.28   5.28 A2-i132 extrapolation
       6  20     5.28  5.28   5.28 A2-i132 extrapolation
       7  20.0   6.68  6.68   6.68 A2-i133 extrapolation
       8  20     6.68  6.68   6.68 A2-i133 extrapolation
       9  20.0   6.40  6.40   6.40 A4-i191 extrapolation
      10  20     6.40  6.40   6.40 A4-i191 extrapolation
      # ℹ 14 more rows
…
