Annotate clonotypes using immune receptor databases • immunarch
…
For demonstration purposes, we will process each of the supported databases below.

VDJDB

Download the VDJDB database following the instructions above. In the examples below, we use URLs to snippets of databases as file paths. In your own code you need to provide paths to your local database files, e.g., “/Users/yourname/Downloads/vdjdb-db-master/vdjdb.slim.txt”. Do not use the links below since they are only for testing purposes and not the actual databases!

Note that VDJDB data obtained from the web interface differs from VDJDB obtained from raw files. Check the next section for working with VDJDB search tables.

The most basic way to load VDJDB to R:

vdjdb = dbLoad("https://gitlab.com/immunomind/immunarch/raw/dev-0.5.0/private/vdjdb.slim.txt.gz", "vdjdb")
vdjdb

## # A tibble: 61,049 x 19
##    gene  cdr3  species antigen.epitope antigen.gene antigen.species complex.id
##    <chr> <chr> <chr>   <chr>           <chr>        <chr>                <dbl>
##  1 TRB   CASS… Macaca… STPESANL        Tat          SIV                0.     
##  2 TRB   CASS… HomoSa… RLRAEAQVK       EBNA3A       EBV                1.93e 4
##  3 TRB   CASS… Macaca… TTPESANL        Tat          SIV                0.     
##  4 TRA   CASN… HomoSa… GILGFVFTL       M            InfluenzaA         0.     
##  5 TRB   CASS… MusMus… HGIRNASFI       M45          MCMV               2.24e24
##  6 TRB   CSAS… HomoSa… KLGGALQAK       IE1          CMV                8.58e 3
##  7 TRA   CAVL… HomoSa… GILGFVFTL       M            InfluenzaA         0.     
##  8 TRB   CASS… HomoSa… KLGGALQAK       IE1          CMV                3.44e 3
##  9 TRB   CAST… MusMus… SSYRRPVGI       PB1          InfluenzaA         2.28e 4
## 10 TRB   CASS… HomoSa… NLVPMVATV       pp65         CMV                0.     
## # … with 61,039 more rows, and 12 more variables: v.segm <chr>, j.segm <chr>,
## #   v.end <dbl>, j.start <dbl>, mhc.a <chr>, mhc.b <chr>, mhc.class <chr>,
## #   reference.id <chr>, vdjdb.score <dbl>, Species <chr>, Chain <chr>,
## #   Pathology <chr>

To load VDJDB and filter out information you need to provide .species, .chain and .pathology arguments:

vdjdb = dbLoad("https://gitlab.com/immunomind/immunarch/raw/dev-0.5.0/private/vdjdb.slim.txt.gz", "vdjdb", .species = "HomoSapiens", .chain = "TRB", .pathology = "CMV")
vdjdb

## # A tibble: 18,039 x 19
##    gene  cdr3  species antigen.epitope antigen.gene antigen.species complex.id
##    <chr> <chr> <chr>   <chr>           <chr>        <chr>                <dbl>
##  1 TRB   CSAS… HomoSa… KLGGALQAK       IE1          CMV                   8584
##  2 TRB   CASS… HomoSa… KLGGALQAK       IE1          CMV                   3445
##  3 TRB   CASS… HomoSa… NLVPMVATV       pp65         CMV                      0
##  4 TRB   CASS… HomoSa… KLGGALQAK       IE1          CMV                  19396
##  5 TRB   CASS… HomoSa… NLVPMVATV       pp65         CMV                      0
##  6 TRB   CAST… HomoSa… KLGGALQAK       IE1          CMV                  10972
##  7 TRB   CASS… HomoSa… KLGGALQAK       IE1          CMV                   6231
##  8 TRB   CASS… HomoSa… KLGGALQAK       IE1          CMV                  12587
##  9 TRB   CATS… HomoSa… KLGGALQAK       IE1          CMV                  13267
## 10 TRB   CASS… HomoSa… NLVPMVATV       pp65         CMV                      0
## # … with 18,029 more rows, and 12 more variables: v.segm <chr>, j.segm <chr>,
## #   v.end <dbl>, j.start <dbl>, mhc.a <chr>, mhc.b <chr>, mhc.class <chr>,
## #   reference.id <chr>, vdjdb.score <dbl>, Species <chr>, Chain <chr>,
## #   Pathology <chr>

VDJDB search tables

vdjdb_st = dbLoad("https://gitlab.com/immunomind/immunarch/raw/dev-0.5.0/private/SearchTable-2019-10-17%2012_36_11.989.tsv.gz", "vdjdb-search", .species = "HomoSapiens", .chain = "TRB", .pathology = "CMV")
vdjdb_st

## # A tibble: 4,999 x 19
##    complex.id Gene  CDR3  V     J     Species `MHC A` `MHC B` `MHC class`
##         <dbl> <chr> <chr> <chr> <chr> <chr>   <chr>   <chr>   <chr>      
##  1          0 TRB   CASS… TRBV… TRBJ… HomoSa… HLA-A*… B2M     MHCI       
##  2          0 TRB   CAWS… TRBV… TRBJ… HomoSa… HLA-A*… B2M     MHCI       
##  3          0 TRB   CASS… TRBV… TRBJ… HomoSa… HLA-A*… B2M     MHCI       
##  4          0 TRB   CASS… TRBV… TRBJ… HomoSa… HLA-B*… B2M     MHCI       
##  5          0 TRB   CASS… TRBV… TRBJ… HomoSa… HLA-B*… B2M     MHCI       
##  6          0 TRB   CASS… TRBV… TRBJ… HomoSa… HLA-B*… B2M     MHCI       
##  7          0 TRB   CASV… TRBV… TRBJ… HomoSa… HLA-B*… B2M     MHCI       
##  8          0 TRB   CASS… TRBV… TRBJ… HomoSa… HLA-B*… B2M     MHCI       
##  9          0 TRB   CASS… TRBV… TRBJ… HomoSa… HLA-B*… B2M     MHCI       
## 10          0 TRB   CASG… TRBV… TRBJ… HomoSa… HLA-B*… B2M     MHCI       
## # … with 4,989 more rows, and 10 more variables: Epitope <chr>, `Epitope
## #   gene` <chr>, `Epitope species` <chr>, Reference <chr>, Method <chr>,
## #   Meta <chr>, CDR3fix <chr>, Score <dbl>, Chain <chr>, Pathology <chr>

McPAS-TCR

mcpas = dbLoad("https://gitlab.com/immunomind/immunarch/raw/dev-0.5.0/private/McPAS-TCR.csv.gz", "mcpas", .species = "Human", .chain = "TRB", .pathology = "Cytomegalovirus (CMV)")
mcpas

## # A tibble: 2,723 x 29
##    CDR3.alpha.aa CDR3.beta.aa Species Category Pathology Pathology.Mesh.…
##    <chr>         <chr>        <chr>   <chr>    <chr>     <chr>           
##  1 <NA>          CASLAPGTTNE… Human   Pathoge… Cytomega… D003586         
##  2 <NA>          CASLQAGANEQF Human   Pathoge… Cytomega… D003586         
##  3 <NA>          CASLSGGGEQF  Human   Pathoge… Cytomega… D003586         
##  4 <NA>          CASLVASGQET… Human   Pathoge… Cytomega… D003586         
##  5 <NA>          CASSHRDSGNT… Human   Pathoge… Cytomega… D003586         
##  6 <NA>          CASSSANYGYTF Human   Pathoge… Cytomega… D003586         
##  7 <NA>          CATSDPLTASY… Human   Pathoge… Cytomega… D003586         
##  8 CARNTGNQF     CACSLRSQGTD… Human   Pathoge… Cytomega… D003586         
##  9 CAGNTGNQFYFG  CASSAWDRSSG… Human   Pathoge… Cytomega… D003586         
## 10 CAYPYNNNDMRF  CASSELGGAGT… Human   Pathoge… Cytomega… D003586         
## # … with 2,713 more rows, and 23 more variables:
## #   Additional.study.details <chr>, Antigen.identification.method <dbl>,
## #   NGS <chr>, Antigen.protein <chr>, Protein.ID <chr>, Epitope.peptide <chr>,
## #   Epitope.ID <dbl>, MHC <chr>, Tissue <chr>, T.Cell.Type <chr>,
## #   T.cell.characteristics <chr>, CDR3.alpha.nt <chr>, TRAV <chr>, TRAJ <chr>,
## #   TRBV <chr>, TRBD <chr>, TRBJ <chr>, Reconstructed.J.annotation <chr>,
## #   CDR3.beta.nt <chr>, Mouse.strain <chr>, PubMed.ID <dbl>, Remarks <chr>,
## #   Chain <chr>
…
# Filter out all non NLVPMVATV epitopes
vdjdb = vdjdb %>% filter(antigen.epitope == "NLVPMVATV")
vdjdb

## # A tibble: 4,496 x 19
##    gene  cdr3  species antigen.epitope antigen.gene antigen.species complex.id
##    <chr> <chr> <chr>   <chr>           <chr>        <chr>                <dbl>
##  1 TRB   CASS… HomoSa… NLVPMVATV       pp65         CMV                      0
##  2 TRB   CASS… HomoSa… NLVPMVATV       pp65         CMV                      0
##  3 TRB   CASS… HomoSa… NLVPMVATV       pp65         CMV                      0
##  4 TRB   CASS… HomoSa… NLVPMVATV       pp65         CMV                      0
##  5 TRB   CSAD… HomoSa… NLVPMVATV       pp65         CMV                      0
##  6 TRB   CASS… HomoSa… NLVPMVATV       pp65         CMV                      0
##  7 TRB   CASS… HomoSa… NLVPMVATV       pp65         CMV                      0
##  8 TRB   CASS… HomoSa… NLVPMVATV       pp65         CMV                      0
##  9 TRB   CSVE… HomoSa… NLVPMVATV       pp65         CMV                      0
## 10 TRB   CASS… HomoSa… NLVPMVATV       pp65         CMV                      0
## # … with 4,486 more rows, and 12 more variables: v.segm <chr>, j.segm <chr>,
## #   v.end <dbl>, j.start <dbl>, mhc.a <chr>, mhc.b <chr>, mhc.class <chr>,
## #   reference.id <chr>, vdjdb.score <dbl>, Species <chr>, Chain <chr>,
## #   Pathology <chr>
…
