…
Now, the computation of the number of filtered sequences is straightforward:

nrow(inframes(immdata$data[[1]]))

And for the out-of-frame clonotypes:

nrow(outofframes(immdata$data[[1]]))

Get subset of clonotypes with a specific V gene

It is simple to subset data frame according to labels in the specified index. In the example the resulting data frame contains only records with ‘TRBV10-1’ V gene:

filter(immdata$data[[1]], V.name == 'TRBV10-1')

## # A tibble: 26 x 15
##    Clones Proportion CDR3.nt CDR3.aa V.name D.name J.name V.end D.start
##     <dbl>      <dbl> <chr>   <chr>   <chr>  <chr>  <chr>  <int>   <int>
##  1      2     0.0002 TGCGCC… CASSES… TRBV1… TRBD2  TRBJ2…    16      20
##  2      2     0.0002 TGCGCC… CASSDG… TRBV1… TRBD1  TRBJ2…    13      15
##  3      2     0.0002 TGCGCC… CASSGD… TRBV1… TRBD2  TRBJ2…     8      10
##  4      1     0.0001 TGCGCC… CASSEA… TRBV1… TRBD2  TRBJ2…    14      21
##  5      1     0.0001 TGCGCC… CATLRS… TRBV1… TRBD1  TRBJ2…     6       7
##  6      1     0.0001 TGCGCC… CASSES… TRBV1… TRBD2  TRBJ2…    16      20
##  7      1     0.0001 TGCGCC… CASSES… TRBV1… TRBD2  TRBJ2…    16      17
##  8      1     0.0001 TGCGCC… CASRAS… TRBV1… TRBD2  TRBJ2…    10      13
##  9      1     0.0001 TGCGCC… CASRGS… TRBV1… TRBD1  TRBJ2…    10      11
## 10      1     0.0001 TGCGCC… CASRRD… TRBV1… TRBD1  TRBJ2…     8      13
## # … with 16 more rows, and 6 more variables: D.end <int>, J.start <int>,
## #   VJ.ins <dbl>, VD.ins <dbl>, DJ.ins <dbl>, Sequence <lgl>
…
