Gene usage analysis • immunarch
…
To compute the distributions of genes, immunarch includes the geneUsage function. It receives a repertoire or a list of repertoires as input and genes and species for which you want to get the statistics. E.g., if you plan to use TRBV genes of Homo Sapiens, you need to use the hs.trbv string in the function, where hs comes from the alias column and trbv is the gene name. Of if you plan to use IGHV genes of Mus Musculus, you need to use musmus.ighv:

# Next four function calls are equal. "hs" is from the "alias" column.
imm_gu = geneUsage(immdata$data, "hs.trbv")
# imm_gu = geneUsage(immdata$data, "HomoSapiens.trbv")
# imm_gu = geneUsage(immdata$data, "hs.TRBV")
# imm_gu = geneUsage(immdata$data, "HomoSapiens.TRBV")

imm_gu

## # A tibble: 48 x 13
##    Names `A2-i129` `A2-i131` `A2-i133` `A2-i132` `A4-i191` `A4-i192`   MS1
##    <chr>     <dbl>     <dbl>     <dbl>     <dbl>     <dbl>     <dbl> <dbl>
##  1 TRBV…        54        69         8        34        35        20    29
##  2 TRBV…       264       320       154       128       429       256   217
##  3 TRBV…        29        22        33        20        22        18    16
##  4 TRBV…       208       193       153       181       110       130   107
##  5 TRBV…        10        15         8        30         2         9     5
##  6 TRBV…       682       541       376       495       396       640   470
##  7 TRBV…        46        63         9        46        20        19     8
##  8 TRBV…        50        59        52        87        33        47    45
##  9 TRBV…        79       109        55        80        44        37    25
## 10 TRBV…       105       166       115        98        88        81   125
## # … with 38 more rows, and 5 more variables: MS2 <dbl>, MS3 <dbl>,
## #   MS4 <dbl>, MS5 <dbl>, MS6 <dbl>
…
