Repertoire overlap and public clonotypes • immunarch
…
Public repertoire

In order to build a massive table with all clonotypes from the list of repertoires use the pubRep function.

# Pass "nt" as the second parameter to build the public repertoire table using CDR3 nucleotide sequences
pr.nt = pubRep(immdata$data, "nt", .verbose = F)
pr.nt

## Source: local data table [88,528 x 14]
## 
## # A tibble: 88,528 x 14
##    CDR3.nt Samples `A2-i129` `A2-i131` `A2-i133` `A2-i132` `A4-i191`
##    <chr>     <dbl>     <dbl>     <dbl>     <dbl>     <dbl>     <dbl>
##  1 TGCGCC…       8         2        NA         2         1        NA
##  2 TGTGCC…       7        NA         1         1         2         1
##  3 TGTGCC…       7         1         1         1        NA         1
##  4 TGCGCC…       6         2        NA         1         1        NA
##  5 TGTGCC…       6         5         3        NA         2         3
##  6 TGTGCC…       6        NA         1         1         5         1
##  7 TGTGCC…       6        NA        NA        NA         1         1
##  8 TGTGCC…       6         1         1         2        NA         5
##  9 TGCAGT…       5         1         3        NA         2        NA
## 10 TGCGCC…       5         1        NA        NA        NA        NA
## # … with 88,518 more rows, and 7 more variables: `A4-i192` <dbl>,
## #   MS1 <dbl>, MS2 <dbl>, MS3 <dbl>, MS4 <dbl>, MS5 <dbl>, MS6 <dbl>

# Pass "aa+v" as the second parameter to build the public repertoire table using CDR3 aminoacid sequences and V alleles
# In order to use only CDR3 aminoacid sequences, just pass "aa"
pr.aav = pubRep(immdata$data, "aa+v", .verbose = F)
pr.aav

## Source: local data table [87,730 x 15]
## 
## # A tibble: 87,730 x 15
##    CDR3.aa V.name Samples `A2-i129` `A2-i131` `A2-i133` `A2-i132` `A4-i191`
##    <chr>   <chr>    <dbl>     <dbl>     <dbl>     <dbl>     <dbl>     <dbl>
##  1 CASSLE… TRBV5…       8         2        NA         3         1        NA
##  2 CASSDS… TRBV6…       6         1         1         2        NA         5
##  3 CASSDS… TRBV6…       6        NA        NA        NA         4         1
##  4 CASSFQ… TRBV5…       6         3        NA         1         1        NA
##  5 CASSLG… TRBV1…       6         2        NA        NA         4         3
##  6 CASSLQ… TRBV1…       6        NA         1         1         4        NA
##  7 CAS~FF  TRBV1…       6        NA         2         1         2        NA
##  8 CSARLA… TRBV2…       6         1         3        NA         2         1
##  9 CASSDS… TRBV6…       5        NA        NA        NA         3        NA
## 10 CASSFG… TRBV1…       5        NA         1        NA         5        NA
## # … with 87,720 more rows, and 7 more variables: `A4-i192` <dbl>,
## #   MS1 <dbl>, MS2 <dbl>, MS3 <dbl>, MS4 <dbl>, MS5 <dbl>, MS6 <dbl>
…
