Data loading • immunarch
…
Now, the computation of the number of filtered sequences is straightforward:

nrow(inframes(immdata$data[[1]]))

And for the out-of-frame clonotypes:

nrow(outofframes(immdata$data[[1]]))

Get subset of clonotypes with a specific V gene

It is simple to subset data frame according to labels in the specified index. In the example the resulting data frame contains only records with ‘TRBV10-1’ V gene:

filter(immdata$data[[1]], V.name == 'TRBV10-1')

## # A tibble: 24 x 15
##    Clones Proportion CDR3.nt    CDR3.aa V.name D.name J.name V.end D.start D.end
##     <dbl>      <dbl> <chr>      <chr>   <chr>  <chr>  <chr>  <int>   <int> <int>
##  1      2   0.000235 TGCGCCAGC… CASSES… TRBV1… TRBD2  TRBJ2…    16      20    25
##  2      2   0.000235 TGCGCCAGC… CASSDG… TRBV1… TRBD1  TRBJ2…    13      15    22
##  3      1   0.000118 TGCGCCAGC… CASSGD… TRBV1… TRBD2  TRBJ2…     8      10    15
##  4      1   0.000118 TGCGCCACC… CATLRS… TRBV1… TRBD1  TRBJ2…     6       7     9
##  5      1   0.000118 TGCGCCAGC… CASSES… TRBV1… TRBD2  TRBJ2…    16      20    22
##  6      1   0.000118 TGCGCCAGC… CASSES… TRBV1… TRBD2  TRBJ2…    16      17    21
##  7      1   0.000118 TGCGCCAGC… CASRAS… TRBV1… TRBD2  TRBJ2…    10      13    21
##  8      1   0.000118 TGCGCCAGC… CASRRD… TRBV1… TRBD1  TRBJ2…     8      13    19
##  9      1   0.000118 TGCGCCAGC… CASSEV… TRBV1… TRBD1  TRBJ2…    14      19    24
## 10      1   0.000118 TGCGCCAGC… CASSEG… TRBV1… TRBD2  TRBJ2…    13      19    27
## # … with 14 more rows, and 5 more variables: J.start <int>, VJ.ins <dbl>,
## #   VD.ins <dbl>, DJ.ins <dbl>, Sequence <lgl>
…
